^C:\USERS\ТЫКВА\SOURCE\REPOS\HOMEWORK_16\HOMEWORK_16.CPP
C:\USERS\Тыква\SOURCE\REPOS\HOMEWORK_16\DEBUG\VC142.PDB
C:\USERS\Тыква\SOURCE\REPOS\HOMEWORK_16\DEBUG\VC142.IDB
C:\USERS\Тыква\SOURCE\REPOS\HOMEWORK_16\DEBUG\HOMEWORK_16.OBJ
